…
The `comparison_cellDivision` function divides a scan up into a grid of
cells. The `cellIndex` column represents the `row,col` location in the
original scan each cell inhabits. Each cell is stored as an `.x3p`
object in the `cellHeightValues` column. The benefit of using a `tibble`
structure is that processes such as removing rows can be accomplished
using simple `dplyr` commands such as `filter`.

``` r
cellTibble <- fadul1.1_processed %>%
  comparison_cellDivision(numCells = 64)

cellTibble
#> # A tibble: 64 x 2
#>    cellIndex cellHeightValues
#>    <chr>     <named list>    
#>  1 1, 1      <x3p>           
#>  2 1, 2      <x3p>           
#>  3 1, 3      <x3p>           
#>  4 1, 4      <x3p>           
#>  5 1, 5      <x3p>           
#>  6 1, 6      <x3p>           
#>  7 1, 7      <x3p>           
#>  8 1, 8      <x3p>           
#>  9 2, 1      <x3p>           
#> 10 2, 2      <x3p>           
#> # ... with 54 more rows
```

The `comparison_getTargetRegions` function extracts a region from a
target scan (in this case Fadul 1-2) to be paired with each cell in the
reference scan.

``` r
cellTibble <- cellTibble %>%
  mutate(regionHeightValues = comparison_getTargetRegions(cellHeightValues = cellHeightValues,
                                                          target_x3p = fadul1.2_processed))

cellTibble
#> # A tibble: 64 x 3
#>    cellIndex cellHeightValues regionHeightValues
#>    <chr>     <named list>     <named list>      
#>  1 1, 1      <x3p>            <x3p>             
#>  2 1, 2      <x3p>            <x3p>             
#>  3 1, 3      <x3p>            <x3p>             
#>  4 1, 4      <x3p>            <x3p>             
#>  5 1, 5      <x3p>            <x3p>             
#>  6 1, 6      <x3p>            <x3p>             
#>  7 1, 7      <x3p>            <x3p>             
#>  8 1, 8      <x3p>            <x3p>             
#>  9 2, 1      <x3p>            <x3p>             
#> 10 2, 2      <x3p>            <x3p>             
#> # ... with 54 more rows
```

We will want to exclude cells and regions that contain few observations.
The `comparison_calcPropMissing` function calculates the proportion of
missing values in a surface matrix. The call below excludes rows in
which either the cell or region contain more that 85% missing values.

``` r
cellTibble <- cellTibble %>%
  mutate(cellPropMissing = comparison_calcPropMissing(cellHeightValues),
         regionPropMissing = comparison_calcPropMissing(regionHeightValues)) %>%
  filter(cellPropMissing <= .85 & regionPropMissing <= .85)

cellTibble %>%
  select(cellIndex,cellPropMissing,regionPropMissing)
#> # A tibble: 25 x 3
#>    cellIndex cellPropMissing regionPropMissing
#>    <chr>               <dbl>             <dbl>
#>  1 1, 6               0.833              0.808
#>  2 2, 7               0.657              0.700
#>  3 2, 8               0.834              0.757
#>  4 3, 8               0.353              0.638
#>  5 4, 8               0.153              0.576
#>  6 5, 1               0.117              0.767
#>  7 5, 8               0.0441             0.511
#>  8 6, 1               0.305              0.687
#>  9 6, 2               0.368              0.605
#> 10 6, 7               0.243              0.390
#> # ... with 15 more rows
```
…
``` r
cellTibble <- cellTibble  %>%
  mutate(cellHeightValues = comparison_standardizeHeights(cellHeightValues),
         regionHeightValues = comparison_standardizeHeights(regionHeightValues)) %>%
  mutate(cellHeightValues_replaced = comparison_replaceMissing(cellHeightValues),
         regionHeightValues_replaced = comparison_replaceMissing(regionHeightValues)) %>%
  mutate(fft_ccf_df = comparison_fft_ccf(cellHeightValues = cellHeightValues_replaced,
                                         regionHeightValues = regionHeightValues_replaced))

cellTibble %>%
  tidyr::unnest(cols = fft_ccf_df) %>%
  select(cellIndex,fft_ccf,x,y)
#> # A tibble: 25 x 4
#>    cellIndex fft_ccf     x     y
#>    <chr>       <dbl> <dbl> <dbl>
#>  1 1, 6        0.244    -7   -23
#>  2 2, 7        0.190    55    31
#>  3 2, 8        0.189    53    53
#>  4 3, 8        0.168   -23   -60
#>  5 4, 8        0.164    -3    13
#>  6 5, 1        0.213   -14   -49
#>  7 5, 8        0.139     7   -48
#>  8 6, 1        0.327   -53   -79
#>  9 6, 2        0.283     8   -45
#> 10 6, 7        0.169    13   -85
#> # ... with 15 more rows
```
…
``` r
cellTibble %>%
  mutate(pairwiseCompCor = comparison_cor(cellHeightValues,regionHeightValues,fft_ccf_df)) %>%
  tidyr::unnest(fft_ccf_df) %>%
  select(cellIndex,x,y,pairwiseCompCor)
#> # A tibble: 25 x 4
#>    cellIndex     x     y pairwiseCompCor
#>    <chr>     <dbl> <dbl>           <dbl>
#>  1 1, 6         -7   -23           0.510
#>  2 2, 7         55    31           0.336
#>  3 2, 8         53    53           0.474
#>  4 3, 8        -23   -60           0.344
#>  5 4, 8         -3    13           0.336
#>  6 5, 1        -14   -49           0.430
#>  7 5, 8          7   -48           0.271
#>  8 6, 1        -53   -79           0.616
#>  9 6, 2          8   -45           0.581
#> 10 6, 7         13   -85           0.453
#> # ... with 15 more rows
```
…
}

kmComparisonFeatures <- purrr::map_dfr(seq(-30,30,by = 3),
                                       ~ comparison_allTogether(reference = fadul1.1_processed,
                                                                target = fadul1.2_processed,
                                                                theta = .))

kmComparisonFeatures
#> # A tibble: 527 x 6
#>    cellIndex     x     y fft_ccf pairwiseCompCor theta
#>    <chr>     <dbl> <dbl>   <dbl>           <dbl> <dbl>
#>  1 2, 7        -28   -54   0.196           0.336   -30
#>  2 3, 1        -21    37   0.408           0.732   -30
#>  3 3, 8        -17   -22   0.251           0.503   -30
#>  4 4, 1         -9    35   0.282           0.675   -30
#>  5 4, 8         -8   -26   0.228           0.529   -30
#>  6 5, 1          1    34   0.295           0.561   -30
#>  7 5, 8          0   -22   0.210           0.499   -30
#>  8 6, 1          8    33   0.435           0.765   -30
#>  9 6, 2         65    66   0.279           0.524   -30
#> 10 6, 7          7   -12   0.133           0.328   -30
#> # ... with 517 more rows
```
…
The original method of [Song
(2013)](https://tsapps.nist.gov/publication/get_pdf.cfm?pub_id=911193)
considers only the similarity features at which the maximum correlation
is attained for each cell across all rotations considered. Since there
is ambiguity in exactly how the correlation is computed in the original
methods, we will consider the features at which specifically the maximum
`pairwiseCompCor` is attained (instead of using the `fft_ccf` column).

``` r
topVotesPerCell <- kmComparisonFeatures %>%
  group_by(cellIndex) %>%
  top_n(n = 1,wt = pairwiseCompCor)

topVotesPerCell
#> # A tibble: 27 x 6
#> # Groups:   cellIndex [27]
#>    cellIndex     x     y fft_ccf pairwiseCompCor theta
#>    <chr>     <dbl> <dbl>   <dbl>           <dbl> <dbl>
#>  1 7, 1         17     9   0.206           0.830   -30
#>  2 7, 4         16    11   0.202           0.617   -30
#>  3 7, 5         16     5   0.193           0.542   -30
#>  4 4, 1         -6    23   0.330           0.722   -27
#>  5 4, 8         -8   -12   0.244           0.600   -27
#>  6 6, 1          3    22   0.441           0.785   -27
#>  7 7, 2          5    18   0.249           0.692   -27
#>  8 7, 7          6    -7   0.349           0.718   -27
#>  9 7, 8         54   -44   0.273           0.824   -27
#> 10 3, 8         -8     4   0.276           0.616   -24
#> # ... with 17 more rows
```
…
kmComparison_allHighCMCs <- bind_rows(kmComparison_highCMCs %>%
                                        mutate(direction = "comparison_1to2"),
                                      kmComparison_highCMCs_rev %>%
                                        mutate(direction = "comparison_2to1")) %>%
  group_by(cellIndex) %>%
  filter(pairwiseCompCor == max(pairwiseCompCor))

kmComparison_allHighCMCs
#> # A tibble: 24 x 7
#> # Groups:   cellIndex [24]
#>    cellIndex     x     y pairwiseCompCor theta highCMCClassif direction      
#>    <chr>     <dbl> <dbl>           <dbl> <dbl> <chr>          <chr>          
#>  1 4, 1         -6    23           0.722   -27 CMC            comparison_1to2
#>  2 7, 7          6    -7           0.718   -27 CMC            comparison_1to2
#>  3 6, 2         -2     9           0.790   -24 CMC            comparison_1to2
#>  4 8, 3         -1    11           0.671   -24 CMC            comparison_1to2
#>  5 8, 7         -1     0           0.879   -24 CMC            comparison_1to2
#>  6 3, 1          1     3           0.776   -21 CMC            comparison_1to2
#>  7 7, 4        -12     5           0.605   -21 CMC            comparison_1to2
#>  8 8, 4        -14     4           0.678   -21 CMC            comparison_1to2
#>  9 8, 6        -13    12           0.675   -21 CMC            comparison_1to2
#> 10 2, 7         -5   -16           0.621    21 CMC            comparison_2to1
#> # ... with 14 more rows
```
…
