An Implementation of the Congruent Matching Cells Method • cmcR
…
Cell-based comparison procedure

Functions of the form comparison_* perform the steps of the cell-based comparison procedure. The data generated from the cell-based comparison procedure are kept in a tibble where one row represents a single cell/region pairing.

The comparison_cellDivision function divides a scan up into a grid of cells. The cellIndex column represents the row,col location in the original scan each cell inhabits. Each cell is stored as an .x3p object in the cellHeightValues column. The benefit of using a tibble structure is that processes such as removing rows can be accomplished using simple dplyr commands such as filter.

cellTibble <- fadul1.1_processed %>%
  comparison_cellDivision(numCells = c(8,8))

cellTibble
#> # A tibble: 64 x 2
#>    cellIndex cellHeightValues
#>    <chr>     <named list>    
#>  1 1, 1      <x3p>           
#>  2 1, 2      <x3p>           
#>  3 1, 3      <x3p>           
#>  4 1, 4      <x3p>           
#>  5 1, 5      <x3p>           
#>  6 1, 6      <x3p>           
#>  7 1, 7      <x3p>           
#>  8 1, 8      <x3p>           
#>  9 2, 1      <x3p>           
#> 10 2, 2      <x3p>           
#> # ... with 54 more rows

The comparison_getTargetRegions function extracts a region from a target scan (in this case Fadul 1-2) to be paired with each cell in the reference scan.

cellTibble <- cellTibble %>%
  mutate(regionHeightValues = comparison_getTargetRegions(cellHeightValues = cellHeightValues,
                                                          target = fadul1.2_processed))

cellTibble
#> # A tibble: 64 x 3
#>    cellIndex cellHeightValues regionHeightValues
#>    <chr>     <named list>     <named list>      
#>  1 1, 1      <x3p>            <x3p>             
#>  2 1, 2      <x3p>            <x3p>             
#>  3 1, 3      <x3p>            <x3p>             
#>  4 1, 4      <x3p>            <x3p>             
#>  5 1, 5      <x3p>            <x3p>             
#>  6 1, 6      <x3p>            <x3p>             
#>  7 1, 7      <x3p>            <x3p>             
#>  8 1, 8      <x3p>            <x3p>             
#>  9 2, 1      <x3p>            <x3p>             
#> 10 2, 2      <x3p>            <x3p>             
#> # ... with 54 more rows

We want to exclude cells and regions that are mostly missing from the scan. The comparison_calcPropMissing function calculates the proportion of missing values in a surface matrix. The call below excludes rows in which either the cell or region contain more that 85% missing values.

cellTibble <- cellTibble %>%
  mutate(cellPropMissing = comparison_calcPropMissing(cellHeightValues),
         regionPropMissing = comparison_calcPropMissing(regionHeightValues)) %>%
  filter(cellPropMissing <= .85 & regionPropMissing <= .85)

cellTibble %>%
  select(cellIndex,cellPropMissing,regionPropMissing)
#> # A tibble: 26 x 3
#>    cellIndex cellPropMissing regionPropMissing
#>    <chr>               <dbl>             <dbl>
#>  1 1, 6                0.786             0.820
#>  2 2, 7                0.533             0.725
#>  3 3, 7                0.831             0.638
#>  4 3, 8                0.536             0.657
#>  5 4, 1                0.308             0.847
#>  6 4, 7                0.840             0.578
#>  7 4, 8                0.268             0.578
#>  8 5, 1                0.237             0.748
#>  9 5, 2                0.814             0.739
#> 10 5, 7                0.564             0.475
#> # ... with 16 more rows
…
cellTibble <- cellTibble  %>%
  mutate(cellHeightValues = comparison_standardizeHeights(cellHeightValues),
         regionHeightValues = comparison_standardizeHeights(regionHeightValues)) %>%
  mutate(cellHeightValues_replaced = comparison_replaceMissing(cellHeightValues),
         regionHeightValues_replaced = comparison_replaceMissing(regionHeightValues)) %>%
  mutate(fft_ccf_df = comparison_fft_ccf(cellHeightValues = cellHeightValues_replaced,
                                         regionHeightValues = regionHeightValues_replaced))

cellTibble %>%
  tidyr::unnest(cols = fft_ccf_df) %>%
  select(cellIndex,fft_ccf,x,y)
#> # A tibble: 26 x 4
#>    cellIndex fft_ccf     x     y
#>    <chr>       <dbl> <dbl> <dbl>
#>  1 1, 6        0.194    -8   -24
#>  2 2, 7        0.210    52    32
#>  3 3, 7        0.119   -29   -64
#>  4 3, 8        0.153     9    14
#>  5 4, 1        0.228     0   -58
#>  6 4, 7        0.120   -61   -39
#>  7 4, 8        0.135     5   -54
#>  8 5, 1        0.230   -14   -54
#>  9 5, 2        0.230    45    99
#> 10 5, 7        0.169    28    -5
#> # ... with 16 more rows
…
cellTibble %>%
  dplyr::mutate(alignedTargetCell = comparison_alignedTargetCell(cellHeightValues = .data$cellHeightValues,
                                                                   regionHeightValues = .data$regionHeightValues,
                                                                   target = fadul1.2_processed,
                                                                   theta = 0,
                                                                   fft_ccf_df = .data$fft_ccf_df)) %>%
    dplyr::mutate(pairwiseCompCor = purrr::map2_dbl(.data$cellHeightValues,.data$alignedTargetCell,
                                             ~ cor(c(.x$surface.matrix),c(.y$surface.matrix),
                                                   use = "pairwise.complete.obs"))) %>%
    tidyr::unnest(.data$fft_ccf_df) %>%
  select(cellIndex,x,y,pairwiseCompCor)
#> # A tibble: 26 x 4
#>    cellIndex     x     y pairwiseCompCor
#>    <chr>     <dbl> <dbl>           <dbl>
#>  1 1, 6         -8   -24           0.486
#>  2 2, 7         52    32           0.423
#>  3 3, 7        -29   -64           0.567
#>  4 3, 8          9    14           0.449
#>  5 4, 1          0   -58           0.519
#>  6 4, 7        -61   -39           0.523
#>  7 4, 8          5   -54           0.314
#>  8 5, 1        -14   -54           0.490
#>  9 5, 2         45    99           0.532
#> 10 5, 7         28    -5           0.514
#> # ... with 16 more rows

Finally, this entire comparison procedure is to be repeated over a number of rotations of the target scan. The entire cell-based comparison procedure is wrapped in the comparison_allTogether function. The resulting data frame below contains the features that are used in the decision-rule procedure

kmComparisonFeatures <- purrr::map_dfr(seq(-30,30,by = 3),
                                       ~ comparison_allTogether(reference = fadul1.1_processed,
                                                                target = fadul1.2_processed,
                                                                
                                                                theta = .,
                                                                returnX3Ps = TRUE))

kmComparisonFeatures %>%
  arrange(theta,cellIndex)
#> # A tibble: 524 x 11
#>    cellIndex     x     y fft_ccf pairwiseCompCor theta refMissingCount
#>    <chr>     <dbl> <dbl>   <dbl>           <dbl> <dbl>           <dbl>
#>  1 3, 1        -26    37   0.381           0.713   -30            2829
#>  2 3, 7        -42   -62   0.147           0.549   -30            4428
#>  3 3, 8          0    -9   0.178           0.396   -30            2858
#>  4 4, 1        -12    35   0.295           0.754   -30            1666
#>  5 4, 7          0   110   0.234           0.640   -30            4479
#>  6 4, 8        -10   -26   0.175           0.598   -30            1427
#>  7 5, 1         -5    36   0.286           0.747   -30            1278
#>  8 5, 2         -2    32   0.154           0.746   -30            4338
#>  9 5, 7        -53   -38   0.135           0.440   -30            3004
#> 10 5, 8          0   -22   0.275           0.661   -30            1548
#> # ... with 514 more rows, and 4 more variables: targMissingCount <dbl>,
#> #   jointlyMissing <dbl>, cellHeightValues <named list>,
#> #   alignedTargetCell <named list>

Decision rule

The decision rules described in Song (2013) and Tong et al. (2015) are implemented via the decision_* functions. We refer to the two decision rules as the original method of Song (2013) and the High CMC method, respectively. Considering the kmComparisonFeatures data frame returned above, we can interpret both of these decision rules as logic that separates “aberrant” from “homogeneous” similarity features. The two decision rules principally differ in how they define an homogeneity.

The original method of Song (2013) considers only the similarity features at which the maximum correlation is attained for each cell across all rotations considered. Since there is ambiguity in exactly how the correlation is computed in the original methods, we will consider the features at which specifically the maximum pairwiseCompCor is attained (instead of using the fft_ccf column).

kmComparisonFeatures %>%
  group_by(cellIndex) %>%
  top_n(n = 1,wt = pairwiseCompCor)
#> # A tibble: 27 x 11
#> # Groups:   cellIndex [27]
#>    cellIndex     x     y fft_ccf pairwiseCompCor theta refMissingCount
#>    <chr>     <dbl> <dbl>   <dbl>           <dbl> <dbl>           <dbl>
#>  1 6, 6          2     6   0.193           0.688   -30            3958
#>  2 5, 2         -4    20   0.175           0.825   -27            4338
#>  3 7, 5          7     2   0.172           0.722   -27            1688
#>  4 8, 6          6    -2   0.269           0.650   -27            2874
#>  5 4, 1         -6    10   0.353           0.844   -24            1666
#>  6 4, 8         -7     2   0.190           0.661   -24            1427
#>  7 5, 1         -6    11   0.331           0.840   -24            1278
#>  8 5, 8         -6     3   0.248           0.745   -24            1548
#>  9 6, 7         -6     3   0.222           0.696   -24             313
#> 10 6, 8         -5     7   0.257           0.789   -24            2912
#> # ... with 17 more rows, and 4 more variables: targMissingCount <dbl>,
#> #   jointlyMissing <dbl>, cellHeightValues <named list>,
#> #   alignedTargetCell <named list>
…
