cmcR Reproducible Example • cmcR
…
The comparison between km1 and unknown1 yields 0 CMCs under both the initially proposed method (in either direction) and the High CMC method. This provides considerable evidence that the pair is non-matching.

any(c(nrow(km1_unknown1_cmcs$initialCMCs$comparison_1to2) > 0,
      nrow(km1_unknown1_cmcs$initialCMCs$comparison_2to1) > 0,
      nrow(km1_unknown1_cmcs$highCMCs) > 0))
#> [1] TRUE

In contrast, the comparison between km1 and unknown2 did yield high CMCs, which are shown below.

km1_unknown2_cmcs$highCMCs
#> # A tibble: 27 x 8
#>    cellNum cellID                    ccf fft.ccf    dx    dy theta comparison   
#>      <int> <chr>                   <dbl>   <dbl> <dbl> <dbl> <dbl> <chr>        
#>  1       3 y = 1 - 73, x = 146 - ~ 0.853   0.410    -6     0   -21 comparison_1~
#>  2      10 y = 74 - 145, x = 74 -~ 0.941   0.530     1    -3   -18 comparison_1~
#>  3      15 y = 74 - 145, x = 435 ~ 0.805   0.355     1    -3   -18 comparison_1~
#>  4      17 y = 146 - 218, x = 1 -~ 0.918   0.341     2    -3   -18 comparison_1~
#>  5      18 y = 146 - 218, x = 74 ~ 0.964   0.496     2    -4   -18 comparison_1~
#>  6      23 y = 146 - 218, x = 435~ 0.898   0.428     1    -2   -18 comparison_1~
#>  7      34 y = 291 - 362, x = 74 ~ 0.809   0.370     1    -6   -18 comparison_1~
#>  8      41 y = 363 - 435, x = 1 -~ 0.921   0.466    -2    -3   -18 comparison_1~
#>  9      42 y = 363 - 435, x = 74 ~ 0.924   0.491     2    -5   -18 comparison_1~
#> 10      46 y = 363 - 435, x = 363~ 0.866   0.269     4     0   -18 comparison_1~
#> # ... with 17 more rows
…
